relogioDigital/simulation/qsim/relogioDigital.msim.vcd
$comment
	File created using the following command:
		vcd file relogioDigital.msim.vcd -direction
$end
$date
	Sat Apr 07 18:11:40 2018
$end
$version
	ModelSim Version 10.5b
$end
$timescale
	1ps
$end

$scope module relogiodigital_vhd_vec_tst $end
$var wire 1 ! carga1 [3] $end
$var wire 1 " carga1 [2] $end
$var wire 1 # carga1 [1] $end
$var wire 1 $ carga1 [0] $end
$var wire 1 % carga2 [3] $end
$var wire 1 & carga2 [2] $end
$var wire 1 ' carga2 [1] $end
$var wire 1 ( carga2 [0] $end
$var wire 1 ) clear $end
$var wire 1 * clk $end
$var wire 1 + enable $end
$var wire 1 , load $end
$var wire 1 - saida1 [6] $end
$var wire 1 . saida1 [5] $end
$var wire 1 / saida1 [4] $end
$var wire 1 0 saida1 [3] $end
$var wire 1 1 saida1 [2] $end
$var wire 1 2 saida1 [1] $end
$var wire 1 3 saida1 [0] $end
$var wire 1 4 saida2 [6] $end
$var wire 1 5 saida2 [5] $end
$var wire 1 6 saida2 [4] $end
$var wire 1 7 saida2 [3] $end
$var wire 1 8 saida2 [2] $end
$var wire 1 9 saida2 [1] $end
$var wire 1 : saida2 [0] $end
$var wire 1 ; seletor $end

$scope module i1 $end
$var wire 1 < gnd $end
$var wire 1 = vcc $end
$var wire 1 > unknown $end
$var wire 1 ? devoe $end
$var wire 1 @ devclrn $end
$var wire 1 A devpor $end
$var wire 1 B ww_devoe $end
$var wire 1 C ww_devclrn $end
$var wire 1 D ww_devpor $end
$var wire 1 E ww_clk $end
$var wire 1 F ww_enable $end
$var wire 1 G ww_load $end
$var wire 1 H ww_clear $end
$var wire 1 I ww_seletor $end
$var wire 1 J ww_carga1 [3] $end
$var wire 1 K ww_carga1 [2] $end
$var wire 1 L ww_carga1 [1] $end
$var wire 1 M ww_carga1 [0] $end
$var wire 1 N ww_carga2 [3] $end
$var wire 1 O ww_carga2 [2] $end
$var wire 1 P ww_carga2 [1] $end
$var wire 1 Q ww_carga2 [0] $end
$var wire 1 R ww_saida1 [6] $end
$var wire 1 S ww_saida1 [5] $end
$var wire 1 T ww_saida1 [4] $end
$var wire 1 U ww_saida1 [3] $end
$var wire 1 V ww_saida1 [2] $end
$var wire 1 W ww_saida1 [1] $end
$var wire 1 X ww_saida1 [0] $end
$var wire 1 Y ww_saida2 [6] $end
$var wire 1 Z ww_saida2 [5] $end
$var wire 1 [ ww_saida2 [4] $end
$var wire 1 \ ww_saida2 [3] $end
$var wire 1 ] ww_saida2 [2] $end
$var wire 1 ^ ww_saida2 [1] $end
$var wire 1 _ ww_saida2 [0] $end
$var wire 1 ` \~QUARTUS_CREATED_GND~I_combout\ $end
$var wire 1 a \clk~input_o\ $end
$var wire 1 b \Bloco_1|clkout1Hz_signal~0_combout\ $end
$var wire 1 c \Bloco_1|clkout1Hz_signal~q\ $end
$var wire 1 d \load~input_o\ $end
$var wire 1 e \seletor~input_o\ $end
$var wire 1 f \carga1[3]~input_o\ $end
$var wire 1 g \enable~input_o\ $end
$var wire 1 h \Bloco_2|temp~6_combout\ $end
$var wire 1 i \carga1[2]~input_o\ $end
$var wire 1 j \Bloco_2|temp~8_combout\ $end
$var wire 1 k \carga1[0]~input_o\ $end
$var wire 1 l \Bloco_2|temp~7_combout\ $end
$var wire 1 m \Bloco_2|temp~2_combout\ $end
$var wire 1 n \clear~input_o\ $end
$var wire 1 o \Bloco_2|temp~0_combout\ $end
$var wire 1 p \carga1[1]~input_o\ $end
$var wire 1 q \Bloco_2|temp~1_combout\ $end
$var wire 1 r \Bloco_2|temp~3_combout\ $end
$var wire 1 s \Bloco_2|temp~4_combout\ $end
$var wire 1 t \Bloco_2|temp~5_combout\ $end
$var wire 1 u \Bloco_4|Mux6~0_combout\ $end
$var wire 1 v \Bloco_4|Mux5~0_combout\ $end
$var wire 1 w \Bloco_4|Mux4~0_combout\ $end
$var wire 1 x \Bloco_4|Mux3~0_combout\ $end
$var wire 1 y \Bloco_4|Mux2~0_combout\ $end
$var wire 1 z \Bloco_4|Mux1~0_combout\ $end
$var wire 1 { \Bloco_4|Mux0~0_combout\ $end
$var wire 1 | \carga2[3]~input_o\ $end
$var wire 1 } \carga2[2]~input_o\ $end
$var wire 1 ~ \Bloco_3|temp~7_combout\ $end
$var wire 1 !! \Bloco_3|temp~4_combout\ $end
$var wire 1 "! \Bloco_3|Add1~0_combout\ $end
$var wire 1 #! \Bloco_3|temp~5_combout\ $end
$var wire 1 $! \carga2[0]~input_o\ $end
$var wire 1 %! \Bloco_3|temp~6_combout\ $end
$var wire 1 &! \Bloco_3|temp~2_combout\ $end
$var wire 1 '! \Bloco_3|temp~0_combout\ $end
$var wire 1 (! \carga2[1]~input_o\ $end
$var wire 1 )! \Bloco_3|temp~1_combout\ $end
$var wire 1 *! \Bloco_3|temp~3_combout\ $end
$var wire 1 +! \Bloco_5|Mux6~0_combout\ $end
$var wire 1 ,! \Bloco_5|Mux5~0_combout\ $end
$var wire 1 -! \Bloco_5|Mux4~0_combout\ $end
$var wire 1 .! \Bloco_5|Mux3~0_combout\ $end
$var wire 1 /! \Bloco_5|Mux2~0_combout\ $end
$var wire 1 0! \Bloco_5|Mux1~0_combout\ $end
$var wire 1 1! \Bloco_5|Mux0~0_combout\ $end
$var wire 1 2! \Bloco_2|temp\ [3] $end
$var wire 1 3! \Bloco_2|temp\ [2] $end
$var wire 1 4! \Bloco_2|temp\ [1] $end
$var wire 1 5! \Bloco_2|temp\ [0] $end
$var wire 1 6! \Bloco_3|temp\ [3] $end
$var wire 1 7! \Bloco_3|temp\ [2] $end
$var wire 1 8! \Bloco_3|temp\ [1] $end
$var wire 1 9! \Bloco_3|temp\ [0] $end
$var wire 1 :! \Bloco_4|ALT_INV_Mux0~0_combout\ $end
$var wire 1 ;! \Bloco_3|ALT_INV_temp\ [3] $end
$var wire 1 <! \Bloco_3|ALT_INV_temp\ [2] $end
$var wire 1 =! \Bloco_3|ALT_INV_temp\ [1] $end
$var wire 1 >! \Bloco_3|ALT_INV_temp\ [0] $end
$var wire 1 ?! \Bloco_5|ALT_INV_Mux0~0_combout\ $end
$var wire 1 @! \Bloco_2|ALT_INV_temp~0_combout\ $end
$var wire 1 A! \Bloco_2|ALT_INV_temp~1_combout\ $end
$var wire 1 B! \Bloco_1|ALT_INV_clkout1Hz_signal~q\ $end
$var wire 1 C! \Bloco_3|ALT_INV_temp~0_combout\ $end
$var wire 1 D! \Bloco_3|ALT_INV_Add1~0_combout\ $end
$var wire 1 E! \Bloco_3|ALT_INV_temp~1_combout\ $end
$var wire 1 F! \Bloco_2|ALT_INV_temp~6_combout\ $end
$var wire 1 G! \Bloco_2|ALT_INV_temp~7_combout\ $end
$var wire 1 H! \Bloco_2|ALT_INV_temp\ [3] $end
$var wire 1 I! \Bloco_2|ALT_INV_temp\ [2] $end
$var wire 1 J! \Bloco_2|ALT_INV_temp\ [1] $end
$var wire 1 K! \Bloco_2|ALT_INV_temp\ [0] $end
$var wire 1 L! \ALT_INV_carga2[3]~input_o\ $end
$var wire 1 M! \ALT_INV_carga2[2]~input_o\ $end
$var wire 1 N! \ALT_INV_carga2[1]~input_o\ $end
$var wire 1 O! \ALT_INV_carga2[0]~input_o\ $end
$var wire 1 P! \ALT_INV_carga1[3]~input_o\ $end
$var wire 1 Q! \ALT_INV_carga1[2]~input_o\ $end
$var wire 1 R! \ALT_INV_carga1[1]~input_o\ $end
$var wire 1 S! \ALT_INV_clear~input_o\ $end
$var wire 1 T! \ALT_INV_carga1[0]~input_o\ $end
$var wire 1 U! \ALT_INV_seletor~input_o\ $end
$var wire 1 V! \ALT_INV_enable~input_o\ $end
$var wire 1 W! \ALT_INV_load~input_o\ $end
$var wire 1 X! \Bloco_3|ALT_INV_temp~7_combout\ $end
$var wire 1 Y! \Bloco_3|ALT_INV_temp~6_combout\ $end
$var wire 1 Z! \Bloco_2|ALT_INV_temp~8_combout\ $end
$upscope $end
$upscope $end
$enddefinitions $end
#0
$dumpvars
0)
0*
1+
1,
1;
0<
1=
x>
1?
1@
1A
1B
1C
1D
0E
1F
1G
0H
1I
x`
0a
1b
0c
1d
1e
0f
1g
1h
1i
1j
0k
1l
0m
0n
0o
1p
0q
1r
1s
0t
0u
0v
0w
0x
0y
0z
0{
0|
1}
1~
1!!
1"!
0#!
0$!
1%!
0&!
1'!
1(!
1)!
1*!
0+!
0,!
0-!
0.!
0/!
00!
01!
1:!
1?!
1@!
1A!
1B!
0C!
0D!
0E!
0F!
0G!
1L!
0M!
0N!
1O!
1P!
0Q!
0R!
1S!
1T!
0U!
0V!
0W!
0X!
0Y!
0Z!
0!
1"
1#
0$
0%
1&
1'
0(
0J
1K
1L
0M
0N
1O
1P
0Q
1R
0S
0T
0U
0V
0W
0X
1Y
0Z
0[
0\
0]
0^
0_
02!
03!
04!
05!
06!
07!
08!
09!
1;!
1<!
1=!
1>!
1H!
1I!
1J!
1K!
1-
0.
0/
00
01
02
03
14
05
06
07
08
09
0:
$end
#5000
1*
1E
1a
1c
0B!
14!
13!
17!
18!
0b
0=!
0<!
0I!
0J!
1o
1v
1{
0"!
0'!
0)!
1,!
11!
0?!
1E!
1C!
1D!
0:!
0@!
1^
1W
0R
0Y
19
12
0-
04
#10000
0*
0E
0a
#15000
1*
1E
1a
0c
1B!
1b
#20000
0*
0E
0a
#25000
1*
1E
1a
1c
0B!
0b
#30000
0*
0E
0a
#35000
1*
1E
1a
0c
1B!
1b
#40000
0*
0E
0a
#45000
1*
1E
1a
1c
0B!
0b
#50000
0*
0E
0a
#55000
1*
1E
1a
0c
1B!
1b
#60000
0*
0E
0a
#65000
1*
1E
1a
1c
0B!
0b
#70000
0*
0E
0a
#75000
1*
1E
1a
0c
1B!
1b
#80000
0*
0,
0E
0G
0d
0a
1W!
0h
0j
0l
1m
1&!
0*!
1G!
1Z!
1F!
0m
#85000
1*
1E
1a
1c
0B!
19!
08!
0b
1=!
0>!
0&!
1/!
1[
16
#90000
0*
0E
0a
#95000
1*
1E
1a
0c
1B!
1b
#100000
0*
0E
0a
#105000
1*
1E
1a
1c
0B!
09!
0b
1>!
0!!
1&!
1'!
1+!
0,!
1.!
0C!
1*!
1\
0^
1_
1:
09
17
#110000
0*
0E
0a
#115000
1*
1E
1a
0c
1B!
1b
#120000
0*
0E
0a
#125000
1*
1E
1a
1c
0B!
07!
19!
18!
0b
0=!
0>!
1<!
0&!
0+!
0.!
10!
1Z
0\
0_
0:
07
15
#130000
0*
0E
0a
#135000
1*
1E
1a
0c
1B!
1b
#140000
0*
0E
0a
#145000
1*
1E
1a
1c
0B!
09!
0b
1>!
1&!
0'!
1-!
0/!
1C!
0*!
0[
1]
18
06
#150000
0*
0E
0a
#155000
1*
1E
1a
0c
1B!
1b
#160000
0*
0E
0a
#165000
1*
1E
1a
1c
0B!
19!
08!
0b
1=!
0>!
0&!
1+!
0-!
1.!
1/!
01!
1?!
1[
1\
0]
1_
1Y
1:
08
17
16
14
#170000
0*
0E
0a
#175000
1*
1E
1a
0c
1B!
1b
#180000
0*
0E
0a
#185000
1*
1E
1a
1c
0B!
09!
0b
1>!
1"!
1&!
1'!
1)!
0+!
0.!
0/!
00!
0E!
0C!
0D!
1#!
0Z
0[
0\
0_
0:
07
06
05
#190000
0*
0E
0a
#195000
1*
1E
1a
0c
1B!
1b
#200000
0*
0E
0a
#205000
1*
1E
1a
1c
0B!
16!
19!
0b
0>!
0;!
0#!
0"!
0&!
0'!
1/!
11!
0?!
1C!
1D!
1#!
1[
0Y
16
04
#210000
0*
0E
0a
#215000
1*
1E
1a
0c
1B!
1b
#220000
0*
0E
0a
#225000
1*
1E
1a
1c
0B!
09!
0b
1>!
1!!
1"!
1&!
1'!
0)!
0/!
1E!
0C!
0D!
0#!
1*!
0[
06
#230000
0*
0E
0a
#235000
1*
1E
1a
0c
1B!
1b
#240000
0*
0E
0a
#245000
1*
1E
1a
1c
0B!
17!
06!
19!
18!
0b
0=!
0>!
1;!
0<!
1#!
0"!
0&!
1.!
1/!
10!
01!
1?!
1D!
0#!
1Z
1[
1\
1Y
17
16
15
14
#250000
0*
0E
0a
#255000
1*
1E
1a
0c
1B!
1b
#260000
0*
0E
0a
#265000
1*
1E
1a
1c
0B!
09!
0b
1>!
1&!
0'!
1,!
0.!
0/!
00!
11!
0?!
1C!
0*!
0Z
0[
0\
1^
0Y
19
07
06
05
04
#270000
0*
0E
0a
#275000
1*
1E
1a
0c
1B!
1b
#280000
0*
0E
0a
#285000
1*
1E
1a
1c
0B!
19!
08!
0b
1=!
0>!
0&!
1/!
1[
16
#290000
0*
0E
0a
#295000
1*
1E
1a
0c
1B!
1b
#300000
0*
0E
0a
#305000
1*
1E
1a
1c
0B!
09!
0b
1>!
0!!
1&!
1'!
1+!
0,!
1.!
0C!
1*!
1\
0^
1_
1:
09
17
#310000
0*
0E
0a
#315000
1*
1E
1a
0c
1B!
1b
#320000
0*
0E
0a
#325000
1*
1E
1a
1c
0B!
07!
19!
18!
0b
0=!
0>!
1<!
0&!
0+!
0.!
10!
1Z
0\
0_
0:
07
15
#330000
0*
0E
0a
#335000
1*
1E
1a
0c
1B!
1b
#340000
0*
0E
0a
#345000
1*
1E
1a
1c
0B!
09!
0b
1>!
1&!
0'!
1-!
0/!
1C!
0*!
0[
1]
18
06
#350000
0*
0E
0a
#355000
1*
1E
1a
0c
1B!
1b
#360000
0*
0E
0a
#365000
1*
1E
1a
1c
0B!
19!
08!
0b
1=!
0>!
0&!
1+!
0-!
1.!
1/!
01!
1?!
1[
1\
0]
1_
1Y
1:
08
17
16
14
#370000
0*
0E
0a
#375000
1*
1E
1a
0c
1B!
1b
#380000
0*
0E
0a
#385000
1*
1E
1a
1c
0B!
09!
0b
1>!
1"!
1&!
1'!
1)!
0+!
0.!
0/!
00!
0E!
0C!
0D!
1#!
0Z
0[
0\
0_
0:
07
06
05
#390000
0*
0;
0E
0I
0e
0a
1U!
1h
1j
1l
0o
0~
0#!
0%!
0'!
0)!
1E!
1C!
1Y!
1X!
1@!
0G!
0Z!
0F!
1m
0r
0&!
#395000
1*
1E
1a
0c
1B!
1b
#400000
0*
0E
0a
#405000
1*
1E
1a
1c
0B!
15!
04!
0b
1J!
0K!
0m
1y
1T
1/
#410000
0*
0E
0a
#415000
1*
1E
1a
0c
1B!
1b
#420000
0*
0E
0a
#425000
1*
1E
1a
1c
0B!
05!
0b
1K!
1m
1o
0s
1u
0v
1x
0@!
1r
1U
0W
1X
13
02
10
#430000
0*
0E
0a
#435000
1*
1E
1a
0c
1B!
1b
#440000
0*
0E
0a
#445000
1*
1E
1a
1c
0B!
15!
14!
03!
0b
1I!
0J!
0K!
0m
0u
0x
1z
1S
0U
0X
03
00
1.
#450000
0*
0E
0a
#455000
1*
1E
1a
0c
1B!
1b
#460000
0*
0E
0a
#465000
1*
1E
1a
1c
0B!
05!
0b
1K!
1m
0o
1w
0y
1@!
0r
0T
1V
11
0/
#470000
0*
0E
0a
#475000
1*
1E
1a
0c
1B!
1b
#480000
0*
0E
0a
#485000
1*
1E
1a
1c
0B!
15!
04!
0b
1J!
0K!
0m
1u
0w
1x
1y
0{
1:!
1T
1U
0V
1X
1R
13
01
10
1/
1-
#490000
0*
0E
0a
#495000
1*
1E
1a
0c
1B!
1b
#500000
0*
0E
0a
#505000
1*
1E
1a
1c
0B!
05!
0b
1K!
1m
1o
1q
1t
0u
0x
0y
0z
0A!
0@!
0S
0T
0U
0X
03
00
0/
0.
#510000
0*
0E
0a
#515000
1*
1E
1a
0c
1B!
1b
#520000
0*
0E
0a
#525000
1*
1E
1a
1c
0B!
15!
12!
0b
0H!
0K!
0o
0m
1y
1{
0:!
1@!
1T
0R
1/
0-
#530000
0*
0E
0a
#535000
1*
1E
1a
0c
1B!
1b
#540000
0*
0E
0a
#545000
1*
1E
1a
1c
0B!
05!
0b
1K!
1m
1o
0q
1s
0t
0y
1A!
0@!
1r
0T
0/
#550000
0*
0E
0a
#555000
1*
1E
1a
0c
1B!
1b
#560000
0*
0E
0a
#565000
1*
1E
1a
1c
0B!
15!
14!
13!
02!
0b
1H!
0I!
0J!
0K!
0m
1x
1y
1z
0{
1:!
1S
1T
1U
1R
10
1/
1.
1-
#570000
0*
0E
0a
#575000
1*
1E
1a
0c
1B!
1b
#580000
0*
0E
0a
#585000
1*
1E
1a
1c
0B!
05!
0b
1K!
1m
0o
1v
0x
0y
0z
1{
0:!
1@!
0r
0S
0T
0U
1W
0R
12
00
0/
0.
0-
#590000
0*
0E
0a
#595000
1*
1E
1a
0c
1B!
1b
#600000
0*
0E
0a
#605000
1*
1E
1a
1c
0B!
15!
04!
0b
1J!
0K!
0m
1y
1T
1/
#610000
0*
0E
0a
#615000
1*
1E
1a
0c
1B!
1b
#620000
0*
0E
0a
#625000
1*
1E
1a
1c
0B!
05!
0b
1K!
1m
1o
0s
1u
0v
1x
0@!
1r
1U
0W
1X
13
02
10
#630000
0*
0E
0a
#635000
1*
1E
1a
0c
1B!
1b
#640000
0*
0E
0a
#645000
1*
1E
1a
1c
0B!
15!
14!
03!
0b
1I!
0J!
0K!
0m
0u
0x
1z
1S
0U
0X
03
00
1.
#650000
0*
0E
0a
#655000
1*
1E
1a
0c
1B!
1b
#660000
0*
0E
0a
#665000
1*
1E
1a
1c
0B!
05!
0b
1K!
1m
0o
1w
0y
1@!
0r
0T
1V
11
0/
#670000
0*
0E
0a
#675000
1*
1E
1a
0c
1B!
1b
#680000
0*
0E
0a
#685000
1*
1E
1a
1c
0B!
15!
04!
0b
1J!
0K!
0m
1u
0w
1x
1y
0{
1:!
1T
1U
0V
1X
1R
13
01
10
1/
1-
#690000
0*
0E
0a
#695000
1*
1E
1a
0c
1B!
1b
#700000
0*
0E
0a
#705000
1*
1E
1a
1c
0B!
05!
0b
1K!
1m
1o
1q
1t
0u
0x
0y
0z
0A!
0@!
0S
0T
0U
0X
03
00
0/
0.
#710000
0*
0E
0a
#715000
1*
1E
1a
0c
1B!
1b
#720000
0*
0E
0a
#725000
1*
1E
1a
1c
0B!
15!
12!
0b
0H!
0K!
0o
0m
1y
1{
0:!
1@!
1T
0R
1/
0-
#730000
0*
0E
0a
#735000
1*
1E
1a
0c
1B!
1b
#740000
0*
0E
0a
#745000
1*
1E
1a
1c
0B!
05!
0b
1K!
1m
1o
0q
1s
0t
0y
1A!
0@!
1r
0T
0/
#750000
0*
0E
0a
#755000
1*
1E
1a
0c
1B!
1b
#760000
0*
0E
0a
#765000
1*
1E
1a
1c
0B!
15!
14!
13!
02!
0b
1H!
0I!
0J!
0K!
0m
1x
1y
1z
0{
1:!
1S
1T
1U
1R
10
1/
1.
1-
#770000
0*
0E
0a
#775000
1*
1E
1a
0c
1B!
1b
#780000
0*
0E
0a
#785000
1*
1E
1a
1c
0B!
05!
0b
1K!
1m
0o
1v
0x
0y
0z
1{
0:!
1@!
0r
0S
0T
0U
1W
0R
12
00
0/
0.
0-
#790000
0*
0E
0a
#795000
1*
1E
1a
0c
1B!
1b
#800000
0*
0E
0a
#805000
1*
1E
1a
1c
0B!
15!
04!
0b
1J!
0K!
0m
1y
1T
1/
#810000
0*
0E
0a
#815000
1*
1E
1a
0c
1B!
1b
#820000
0*
0E
0a
#825000
1*
1E
1a
1c
0B!
05!
0b
1K!
1m
1o
0s
1u
0v
1x
0@!
1r
1U
0W
1X
13
02
10
#830000
0*
0E
0a
#835000
1*
1E
1a
0c
1B!
1b
#840000
0*
0E
0a
#845000
1*
1E
1a
1c
0B!
15!
14!
03!
0b
1I!
0J!
0K!
0m
0u
0x
1z
1S
0U
0X
03
00
1.
#850000
0*
0E
0a
#855000
1*
1E
1a
0c
1B!
1b
#860000
0*
0E
0a
#865000
1*
1E
1a
1c
0B!
05!
0b
1K!
1m
0o
1w
0y
1@!
0r
0T
1V
11
0/
#870000
0*
0E
0a
#875000
1*
1E
1a
0c
1B!
1b
#880000
0*
0E
0a
#885000
1*
1E
1a
1c
0B!
15!
04!
0b
1J!
0K!
0m
1u
0w
1x
1y
0{
1:!
1T
1U
0V
1X
1R
13
01
10
1/
1-
#890000
0*
0E
0a
#895000
1*
1E
1a
0c
1B!
1b
#900000
0*
0E
0a
#905000
1*
1E
1a
1c
0B!
05!
0b
1K!
1m
1o
1q
1t
0u
0x
0y
0z
0A!
0@!
0S
0T
0U
0X
03
00
0/
0.
#910000
0*
1)
0E
1H
1n
0a
0S!
#915000
1*
1E
1a
0c
1B!
1b
#920000
0*
0E
0a
#925000
1*
1E
1a
1c
0B!
0b
#930000
0*
0E
0a
#935000
1*
1E
1a
0c
1B!
1b
#940000
0*
0E
0a
#945000
1*
1E
1a
1c
0B!
0b
#950000
0*
0E
0a
#955000
1*
1E
1a
0c
1B!
1b
#960000
0*
0E
0a
#965000
1*
1E
1a
1c
0B!
0b
#970000
0*
0E
0a
#975000
1*
1E
1a
0c
1B!
1b
#980000
0*
0E
0a
#985000
1*
1E
1a
1c
0B!
0b
#990000
0*
0E
0a
#995000
1*
1E
1a
0c
1B!
1b
